grid solution 
0.000000e+00 0.000000e+00 
5.000000e-01 9.665683e-02 
1.000000e+00 2.235073e-01 
1.500000e+00 4.107172e-01 
2.000000e+00 6.859379e-01 
2.500000e+00 1.067895e+00 
3.000000e+00 1.556654e+00 
3.500000e+00 2.123960e+00 
4.000000e+00 2.709268e+00 
4.500000e+00 3.226816e+00 
5.000000e+00 3.585062e+00 
5.500000e+00 3.713268e+00 
6.000000e+00 3.584692e+00 
6.500000e+00 3.225740e+00 
7.000000e+00 2.706579e+00 
7.500000e+00 2.117608e+00 
8.000000e+00 1.542330e+00 
8.500000e+00 1.037094e+00 
9.000000e+00 6.229618e-01 
9.500000e+00 2.886597e-01 
1.000000e+01 0.000000e+00 
